{
  "form-factory/formOptions": {
    "type": "object",
    "description": "FormOptions type"
  },
  "form-factory/formFields": {
    "type": "array",
    "description":"FieldsOptionItem[] type"
  }
}